{
  "data":[
    {
      "image_path":"assets/img/fuelic-app.jpg",
      "heading":"Know more about Fuelic Pay At Pump",
      "heading2":"Fuelic smartphone application is a location based mechanism where the customers need to register once. Afterward, simply select the pump number and validate your device, location and payment mechanism. Once validated, it opens the dispenser and you are all set to fill the fuel. It then automatically deducts the payment from the registered account of the customer. ",

      "content":"Fuelic offers seamless experience to pay for the fuel using smartphones. With simple configurations,  businesses can choose a fuel station to operate in Postpay or Prepay modes in desired duration. Fuel station can also run 24x7 unmanned. Fuelic's distinctive design helps in increasing the retail sales. This solution platform is driven by Technology Innovation and Simplicity, therefore delivering a great customer experience.",
      "highlights":["Locate nearby fuel station","Choose desired pump", "Select payment method", "Complete transaction", "Avail incentive & discounts", "Get digital receipts"]
    }
  ]
}
