{
  "data":[
    {
      "title":"Login to ",
      "features":["Register yourself in few clicks", "Setup your Business detail", "Onboard Drivers", "Onboard Vehicle", "Create Roster", "All set with Fuelic Fleet"],
      "pageLink":"/fleet"
    }
  ]
}
