{
  "data":[
   {
      "image_path":"./assets/img/blog-thumb-1.jpg",
      "title":"Productivity Tools",
      "title_color":"bg-info",
      "heading":"Beautiful Designs",
      "read_more_url":"javascript:void(0)",
      "content": "Dolor posuere proin blandit accumsan senectus netus nullam curae, ornare laoreet adipiscing luctus mauris adipiscing pretium eget fermentum, tristique lobortis est ut metus lobortis tortor tincidunt himenaeos habitant quis dictumst proin odio sagittis purus mi, nec taciti vestibulum quis in sit varius lorem sit metus mi."
   },
   {
      "image_path":"./assets/img/blog-thumb-2.jpg",
      "title":"Productivity Tools",
      "title_color":"badge-warning",
      "heading":"Mutifunctionals Blocks",
      "read_more_url":"javascript:void(0)",
      "content": "Dolor posuere proin blandit accumsan senectus netus nullam curae, ornare laoreet adipiscing luctus mauris adipiscing pretium eget fermentum, tristique lobortis est ut metus lobortis tortor tincidunt himenaeos habitant quis dictumst proin odio sagittis purus mi, nec taciti vestibulum quis in sit varius lorem sit metus mi."
   },
   {
      "image_path":"./assets/img/blog-thumb-3.jpg",
      "title":"Productivity Tools",
      "title_color":"bg-yellow",
      "heading":"Angular App For Game",
      "read_more_url":"javascript:void(0)",
      "content": "Dolor posuere proin blandit accumsan senectus netus nullam curae, ornare laoreet adipiscing luctus mauris adipiscing pretium eget fermentum, tristique lobortis est ut metus lobortis tortor tincidunt himenaeos habitant quis dictumst proin odio sagittis purus mi, nec taciti vestibulum quis in sit varius lorem sit metus mi."
   },
   {
      "image_path":"./assets/img/blog-thumb-4.jpg",
      "title_color":"badge-primary",
      "title":"Productivity Tools",
      "heading":"HD Images For Portfolio",
      "read_more_url":"javascript:void(0)",
      "content": "Dolor posuere proin blandit accumsan senectus netus nullam curae, ornare laoreet adipiscing luctus mauris adipiscing pretium eget fermentum, tristique lobortis est ut metus lobortis tortor tincidunt himenaeos habitant quis dictumst proin odio sagittis purus mi, nec taciti vestibulum quis in sit varius lorem sit metus mi."
   },
   {
      "image_path":"./assets/img/blog-thumb-6.jpg",
      "title":"Productivity Tools",
      "title_color":"badge-danger",
      "heading":"HTML 5 App For Game",
      "read_more_url":"javascript:void(0)",
      "content": "Dolor posuere proin blandit accumsan senectus netus nullam curae, ornare laoreet adipiscing luctus mauris adipiscing pretium eget fermentum, tristique lobortis est ut metus lobortis tortor tincidunt himenaeos habitant quis dictumst proin odio sagittis purus mi, nec taciti vestibulum quis in sit varius lorem sit metus mi."
   }
   ]
}
