{
   "data":[
      {
        "image_path":"./assets/img/gallery-1.png",
        "type":"home"
      },
      {
        "image_path":"./assets/img/gallery-2.png",
        "type":"home"
      },
      {
        "image_path":"./assets/img/gallery-3.png",
        "type":"home"
      },
      {
        "image_path":"./assets/img/gallery-4.png",
        "type":"home"
      },
      {
        "image_path":"./assets/img/gallery-5.png",
        "type":"home"
      },
      {
        "image_path":"./assets/img/gallery-6.png",
        "type":"home"
      }
   ]
}