{
  "data":[
    {
      "image_path":"./assets/img/lpr.jpg",
      "name":"Automatic License Plate Recognition",
      "link":"/lpr",
      "content":"Highly accurate LPR technology that can detect number plate, make, model, colour, year range, state etc. of every vehicle, it also take snapshot and video clip of every vehicle..."
    },
    {
      "image_path":"./assets/img/rfid.jpg",
      "name":"RFID Reader Access Control",
      "link":"/rfid",
      "content":"Highly Accurate Long Range and high frequency RFID Reader that can detect & open boom gates for authorised vehicles (with windscreen tags) from the distance within 10 metres..."
    }
  ]
}
